{
    "KPlugin": {
        "Id": "googleauthenticationplugin",
        "Name": "Google Authentication Plugin",
        "Name[ca@valencia]": "Connector d'autenticació de Google",
        "Name[ca]": "Connector d'autenticació de Google",
        "Name[cs]": "Ověřovací modul Google",
        "Name[de]": "Google-Authentifizierungsmodul",
        "Name[en_GB]": "Google Authentication Plugin",
        "Name[es]": "Complemento de autenticación de Google",
        "Name[et]": "Google'i autentimise plugin",
        "Name[eu]": "Google Autentifikazio Plugina",
        "Name[fi]": "Google-todennusliitännäinen",
        "Name[fr]": "Module externe d'authentification pour Google",
        "Name[ia]": "Plugin de Authentication de Google",
        "Name[it]": "Estensione per l'autenticazione con Google",
        "Name[ka]": "Google-ის ავთენტიკაციის დამატება",
        "Name[ko]": "Google 인증 플러그인",
        "Name[lt]": "Google tapatybės nustatymo papildinys",
        "Name[nl]": "Plug-in voor authenticatie via Google",
        "Name[pl]": "Wtyczka uwierzytelnienia Google",
        "Name[pt]": "'Plugin' de Autenticação do Google",
        "Name[pt_BR]": "Plugin de autenticação do Google",
        "Name[ro]": "Extensie de autentificare Google",
        "Name[ru]": "Модуль входа с учётной записью Google",
        "Name[sk]": "Plugin autentifikácie Google",
        "Name[sl]": "Vtičnik overovljenja Googla",
        "Name[sv]": "Insticksprogram för Google behörighetskontroll",
        "Name[tr]": "Google Kimlik Doğrulama Eklentisi",
        "Name[uk]": "Додаток розпізнавання Google",
        "Name[x-test]": "xxGoogle Authentication Pluginxx",
        "Name[zh_TW]": "Google 身份驗證外掛程式",
        "ServiceTypes": [
            "Ruqola/Authentication"
        ],
        "Version": "1.0"
    }
}
